…
    ##            used  (Mb) gc trigger  (Mb) max used  (Mb)
    ## Ncells  4711656 251.7    8071894 431.1  4731095 252.7
    ## Vcells 49690261 379.2   93217160 711.2 80005792 610.4

### Guess the examiner’s race

``` r
library(wru)
examiner_surnames <- app_data_sample %>% 
  select(surname = examiner_name_last) %>% 
  distinct()
examiner_surnames
```

    ## # A tibble: 3,806 x 1
    ##    surname   
    ##    <chr>     
    ##  1 HOWARD    
    ##  2 YILDIRIM  
    ##  3 HAMILTON  
    ##  4 MOSHER    
    ##  5 BARR      
    ##  6 GRAY      
    ##  7 MCMILLIAN 
    ##  8 FORD      
    ##  9 STRZELECKA
    ## 10 KIM       
    ## # ... with 3,796 more rows
``` r
examiner_race <- predict_race(voter.file = examiner_surnames, surname.only = T) %>% 
  as_tibble()
```

    ## [1] "Proceeding with surname-only predictions..."

    ## Warning in merge_surnames(voter.file): Probabilities were imputed for 698
    ## surnames that could not be matched to Census list.

``` r
examiner_race
```

    ## # A tibble: 3,806 x 6
    ##    surname    pred.whi pred.bla pred.his pred.asi pred.oth
    ##    <chr>         <dbl>    <dbl>    <dbl>    <dbl>    <dbl>
    ##  1 HOWARD       0.643   0.295    0.0237   0.005     0.0333
    ##  2 YILDIRIM     0.861   0.0271   0.0609   0.0135    0.0372
    ##  3 HAMILTON     0.702   0.237    0.0245   0.0054    0.0309
    ##  4 MOSHER       0.947   0.00410  0.0241   0.00640   0.0185
    ##  5 BARR         0.827   0.117    0.0226   0.00590   0.0271
    ##  6 GRAY         0.687   0.251    0.0241   0.0054    0.0324
    ##  7 MCMILLIAN    0.359   0.574    0.0189   0.00260   0.0463
    ##  8 FORD         0.620   0.32     0.0237   0.0045    0.0313
    ##  9 STRZELECKA   0.666   0.0853   0.137    0.0797    0.0318
    ## 10 KIM          0.0252  0.00390  0.00650  0.945     0.0198
    ## # ... with 3,796 more rows
``` r
examiner_race <- examiner_race %>% 
  mutate(max_race_p = pmax(pred.asi, pred.bla, pred.his, pred.oth, pred.whi)) %>% 
  mutate(race = case_when(
    max_race_p == pred.asi ~ "Asian",
    max_race_p == pred.bla ~ "black",
    max_race_p == pred.his ~ "Hispanic",
    max_race_p == pred.oth ~ "other",
    max_race_p == pred.whi ~ "white",
    TRUE ~ NA_character_
  ))
examiner_race
```

    ## # A tibble: 3,806 x 8
    ##    surname    pred.whi pred.bla pred.his pred.asi pred.oth max_race_p race 
    ##    <chr>         <dbl>    <dbl>    <dbl>    <dbl>    <dbl>      <dbl> <chr>
    ##  1 HOWARD       0.643   0.295    0.0237   0.005     0.0333      0.643 white
    ##  2 YILDIRIM     0.861   0.0271   0.0609   0.0135    0.0372      0.861 white
    ##  3 HAMILTON     0.702   0.237    0.0245   0.0054    0.0309      0.702 white
    ##  4 MOSHER       0.947   0.00410  0.0241   0.00640   0.0185      0.947 white
    ##  5 BARR         0.827   0.117    0.0226   0.00590   0.0271      0.827 white
    ##  6 GRAY         0.687   0.251    0.0241   0.0054    0.0324      0.687 white
    ##  7 MCMILLIAN    0.359   0.574    0.0189   0.00260   0.0463      0.574 black
    ##  8 FORD         0.620   0.32     0.0237   0.0045    0.0313      0.620 white
    ##  9 STRZELECKA   0.666   0.0853   0.137    0.0797    0.0318      0.666 white
    ## 10 KIM          0.0252  0.00390  0.00650  0.945     0.0198      0.945 Asian
    ## # ... with 3,796 more rows
…
    ##            used  (Mb) gc trigger  (Mb) max used  (Mb)
    ## Ncells  5081844 271.4    8071894 431.1  6143819 328.2
    ## Vcells 53444993 407.8   93217160 711.2 92761970 707.8

### Examiner’s tenure

``` r
library(lubridate) # to work with dates
examiner_dates <- app_data_sample %>% 
  select(examiner_id, filing_date, appl_status_date) 
examiner_dates
```

    ## # A tibble: 2,018,477 x 3
    ##    examiner_id filing_date appl_status_date  
    ##          <dbl> <date>      <chr>             
    ##  1       96082 2000-01-26  30jan2003 00:00:00
    ##  2       87678 2000-10-11  27sep2010 00:00:00
    ##  3       63213 2000-05-17  30mar2009 00:00:00
    ##  4       73788 2001-07-20  07sep2009 00:00:00
    ##  5       77294 2000-04-10  19apr2001 00:00:00
    ##  6       68606 2000-04-28  16jul2001 00:00:00
    ##  7       89557 2004-01-26  15may2017 00:00:00
    ##  8       97543 2000-06-23  03apr2002 00:00:00
    ##  9       98714 2000-02-04  27nov2002 00:00:00
    ## 10       65530 2002-02-20  23mar2009 00:00:00
    ## # ... with 2,018,467 more rows
…
``` r
examiner_dates <- examiner_dates %>% 
  group_by(examiner_id) %>% 
  summarise(
    earliest_date = min(start_date, na.rm = TRUE), 
    latest_date = max(end_date, na.rm = TRUE),
    tenure_days = interval(earliest_date, latest_date) %/% days(1)
    )
examiner_dates
```

    ## # A tibble: 5,649 x 4
    ##    examiner_id earliest_date latest_date tenure_days
    ##          <dbl> <date>        <date>            <dbl>
    ##  1       59012 2004-07-28    2015-07-24         4013
    ##  2       59025 2009-10-26    2017-05-18         2761
    ##  3       59030 2005-12-12    2017-05-22         4179
    ##  4       59040 2007-09-11    2017-05-23         3542
    ##  5       59052 2001-08-21    2007-02-28         2017
    ##  6       59054 2000-11-10    2016-12-23         5887
    ##  7       59055 2004-11-02    2007-12-26         1149
    ##  8       59056 2000-03-24    2017-05-22         6268
    ##  9       59074 2000-01-31    2017-03-17         6255
    ## 10       59081 2011-04-21    2017-05-19         2220
    ## # ... with 5,639 more rows
…
    art_unit = min(examiner_art_unit, na.rm = TRUE),
    gender = min(gender, na.rm = TRUE),
    start_year = min(year(earliest_date), na.rm = TRUE),
    latest_date = max(latest_date, na.rm = TRUE),
    tenure_days = max(tenure_days, na.rm = TRUE)
  ) %>% 
  mutate(
    tc = floor(art_unit/100)*100,
    work_group = floor(art_unit/10)*10
  ) %>% 
  filter(!is.na(gender)) # dropping all records where we don't know the gender
person_level_data
```

    ## # A tibble: 4,849 x 8
    ##    examiner_id art_unit gender start_year latest_date tenure_days    tc
    ##          <dbl>    <dbl> <chr>       <dbl> <date>            <dbl> <dbl>
    ##  1       59012     1716 male         2004 2015-07-24         4013  1700
    ##  2       59025     2465 male         2009 2017-05-18         2761  2400
    ##  3       59040     1724 female       2007 2017-05-23         3542  1700
    ##  4       59052     2138 male         2001 2007-02-28         2017  2100
    ##  5       59055     2165 male         2004 2007-12-26         1149  2100
    ##  6       59056     2124 male         2000 2017-05-22         6268  2100
    ##  7       59081     2489 male         2011 2017-05-19         2220  2400
    ##  8       59086     2487 female       2010 2017-05-18         2527  2400
    ##  9       59096     1612 male         2000 2015-11-20         5800  1600
    ## 10       59117     2439 male         2009 2011-09-02          925  2400
    ## # ... with 4,839 more rows, and 1 more variable: work_group <dbl>
…
    art_unit = min(examiner_art_unit, na.rm = TRUE),
    race = min(race, na.rm = TRUE),
    start_year = min(year(earliest_date), na.rm = TRUE),
    latest_date = max(latest_date, na.rm = TRUE),
    tenure_days = max(tenure_days, na.rm = TRUE)
  ) %>% 
  mutate(
    tc = floor(art_unit/100)*100,
    work_group = floor(art_unit/10)*10
  ) %>% 
  filter(!is.na(race)) # dropping all records where we don't know the race
person_level_data
```

    ## # A tibble: 5,649 x 8
    ##    examiner_id art_unit race  start_year latest_date tenure_days    tc
    ##          <dbl>    <dbl> <chr>      <dbl> <date>            <dbl> <dbl>
    ##  1       59012     1716 white       2004 2015-07-24         4013  1700
    ##  2       59025     2465 Asian       2009 2017-05-18         2761  2400
    ##  3       59030     2441 black       2005 2017-05-22         4179  2400
    ##  4       59040     1724 Asian       2007 2017-05-23         3542  1700
    ##  5       59052     2138 Asian       2001 2007-02-28         2017  2100
    ##  6       59054     2122 Asian       2000 2016-12-23         5887  2100
    ##  7       59055     2165 Asian       2004 2007-12-26         1149  2100
    ##  8       59056     2124 Asian       2000 2017-05-22         6268  2100
    ##  9       59074     2131 white       2000 2017-03-17         6255  2100
    ## 10       59081     2489 Asian       2011 2017-05-19         2220  2400
    ## # ... with 5,639 more rows, and 1 more variable: work_group <dbl>
…
