…
``` r
time_in_grade <- examiner_gs %>% 
  mutate(
    start_date = mdy(start_date), # converting into proper date type
    end_date = mdy(end_date), # converting into proper date type
    days_in_grade = interval(start_date, end_date) %/% days(1)
  ) %>% 
  group_by(examiner_id) %>% 
  filter(grade!=max(grade, na.rm = TRUE)) %>% # dropping the highest grade record
  summarise(mean_days_in_grade = mean(days_in_grade, na.rm = TRUE))

time_in_grade
```

    ## # A tibble: 10,860 x 2
    ##    examiner_id mean_days_in_grade
    ##          <dbl>              <dbl>
    ##  1       59012               356.
    ##  2       59015               783 
    ##  3       59016               341.
    ##  4       59018               368.
    ##  5       59019               293 
    ##  6       59025               485 
    ##  7       59027               364.
    ##  8       59030               493.
    ##  9       59033               258.
    ## 10       59035               308.
    ## # ... with 10,850 more rows
…
